project_1/project_1.sim/sim_1/behav/xsim/simulate.log
Vivado Simulator 2019.1
Time resolution is 1 ps
Time:                    0 | CPU_RESETN: 0 | SW: 0000000000000000 | BTNC: 0 | VGA_R: xxxx | VGA_G: xxxx | VGA_B: xxxx | VGA_HS: 1 | VGA_VS: 1
Time:                10000 | CPU_RESETN: 1 | SW: 0000000000000000 | BTNC: 0 | VGA_R: xxxx | VGA_G: xxxx | VGA_B: xxxx | VGA_HS: 1 | VGA_VS: 1
Time:                25000 | CPU_RESETN: 1 | SW: 0000000000000000 | BTNC: 0 | VGA_R: 0000 | VGA_G: 0000 | VGA_B: 0000 | VGA_HS: 1 | VGA_VS: 1
Time:                30000 | CPU_RESETN: 1 | SW: 1010101010101010 | BTNC: 0 | VGA_R: 0000 | VGA_G: 0000 | VGA_B: 0000 | VGA_HS: 1 | VGA_VS: 1
Time:                50000 | CPU_RESETN: 1 | SW: 1010101010101010 | BTNC: 1 | VGA_R: 0000 | VGA_G: 0000 | VGA_B: 0000 | VGA_HS: 1 | VGA_VS: 1
Time:                60000 | CPU_RESETN: 1 | SW: 1010101010101010 | BTNC: 0 | VGA_R: 0000 | VGA_G: 0000 | VGA_B: 0000 | VGA_HS: 1 | VGA_VS: 1
Time:                80000 | CPU_RESETN: 1 | SW: 1010101010101010 | BTNC: 1 | VGA_R: 0000 | VGA_G: 0000 | VGA_B: 0000 | VGA_HS: 1 | VGA_VS: 1
Time:               100000 | CPU_RESETN: 1 | SW: 0101010101010101 | BTNC: 1 | VGA_R: 0000 | VGA_G: 0000 | VGA_B: 0000 | VGA_HS: 1 | VGA_VS: 1
$finish called at time : 300 ns : File "/home/it/Desktop/sv_projects/VGA/project_1/project_1.srcs/sources_1/new/tb_top.sv" Line 56
Time:             25605000 | CPU_RESETN: 1 | SW: 0101010101010101 | BTNC: 1 | VGA_R: 0000 | VGA_G: 0000 | VGA_B: 1111 | VGA_HS: 1 | VGA_VS: 1
Time:             26245000 | CPU_RESETN: 1 | SW: 0101010101010101 | BTNC: 1 | VGA_R: 0000 | VGA_G: 0000 | VGA_B: 1111 | VGA_HS: 0 | VGA_VS: 1
Time:             30085000 | CPU_RESETN: 1 | SW: 0101010101010101 | BTNC: 1 | VGA_R: 0000 | VGA_G: 0000 | VGA_B: 1111 | VGA_HS: 1 | VGA_VS: 1
Time:             32005000 | CPU_RESETN: 1 | SW: 0101010101010101 | BTNC: 1 | VGA_R: 0000 | VGA_G: 0000 | VGA_B: 0000 | VGA_HS: 1 | VGA_VS: 1
Time:             57605000 | CPU_RESETN: 1 | SW: 0101010101010101 | BTNC: 1 | VGA_R: 0000 | VGA_G: 0000 | VGA_B: 1111 | VGA_HS: 1 | VGA_VS: 1
Time:             58245000 | CPU_RESETN: 1 | SW: 0101010101010101 | BTNC: 1 | VGA_R: 0000 | VGA_G: 0000 | VGA_B: 1111 | VGA_HS: 0 | VGA_VS: 1
Time:             62085000 | CPU_RESETN: 1 | SW: 0101010101010101 | BTNC: 1 | VGA_R: 0000 | VGA_G: 0000 | VGA_B: 1111 | VGA_HS: 1 | VGA_VS: 1
Time:             64005000 | CPU_RESETN: 1 | SW: 0101010101010101 | BTNC: 1 | VGA_R: 0000 | VGA_G: 0000 | VGA_B: 0000 | VGA_HS: 1 | VGA_VS: 1
Time:             89605000 | CPU_RESETN: 1 | SW: 0101010101010101 | BTNC: 1 | VGA_R: 0000 | VGA_G: 0000 | VGA_B: 1111 | VGA_HS: 1 | VGA_VS: 1
Time:             90245000 | CPU_RESETN: 1 | SW: 0101010101010101 | BTNC: 1 | VGA_R: 0000 | VGA_G: 0000 | VGA_B: 1111 | VGA_HS: 0 | VGA_VS: 1
Time:             94085000 | CPU_RESETN: 1 | SW: 0101010101010101 | BTNC: 1 | VGA_R: 0000 | VGA_G: 0000 | VGA_B: 1111 | VGA_HS: 1 | VGA_VS: 1
Time:             96005000 | CPU_RESETN: 1 | SW: 0101010101010101 | BTNC: 1 | VGA_R: 0000 | VGA_G: 0000 | VGA_B: 0000 | VGA_HS: 1 | VGA_VS: 1
Time:            121605000 | CPU_RESETN: 1 | SW: 0101010101010101 | BTNC: 1 | VGA_R: 0000 | VGA_G: 0000 | VGA_B: 1111 | VGA_HS: 1 | VGA_VS: 1
Time:            122245000 | CPU_RESETN: 1 | SW: 0101010101010101 | BTNC: 1 | VGA_R: 0000 | VGA_G: 0000 | VGA_B: 1111 | VGA_HS: 0 | VGA_VS: 1
Time:            126085000 | CPU_RESETN: 1 | SW: 0101010101010101 | BTNC: 1 | VGA_R: 0000 | VGA_G: 0000 | VGA_B: 1111 | VGA_HS: 1 | VGA_VS: 1
Time:            153605000 | CPU_RESETN: 1 | SW: 0101010101010101 | BTNC: 1 | VGA_R: 0000 | VGA_G: 1111 | VGA_B: 0000 | VGA_HS: 1 | VGA_VS: 1
Time:            154245000 | CPU_RESETN: 1 | SW: 0101010101010101 | BTNC: 1 | VGA_R: 0000 | VGA_G: 1111 | VGA_B: 0000 | VGA_HS: 0 | VGA_VS: 1
Time:            158085000 | CPU_RESETN: 1 | SW: 0101010101010101 | BTNC: 1 | VGA_R: 0000 | VGA_G: 1111 | VGA_B: 0000 | VGA_HS: 1 | VGA_VS: 1
Time:            160005000 | CPU_RESETN: 1 | SW: 0101010101010101 | BTNC: 1 | VGA_R: 0000 | VGA_G: 0000 | VGA_B: 1111 | VGA_HS: 1 | VGA_VS: 1
Time:            185605000 | CPU_RESETN: 1 | SW: 0101010101010101 | BTNC: 1 | VGA_R: 0000 | VGA_G: 1111 | VGA_B: 0000 | VGA_HS: 1 | VGA_VS: 1
Time:            186245000 | CPU_RESETN: 1 | SW: 0101010101010101 | BTNC: 1 | VGA_R: 0000 | VGA_G: 1111 | VGA_B: 0000 | VGA_HS: 0 | VGA_VS: 1
Time:            190085000 | CPU_RESETN: 1 | SW: 0101010101010101 | BTNC: 1 | VGA_R: 0000 | VGA_G: 1111 | VGA_B: 0000 | VGA_HS: 1 | VGA_VS: 1
Time:            192005000 | CPU_RESETN: 1 | SW: 0101010101010101 | BTNC: 1 | VGA_R: 0000 | VGA_G: 0000 | VGA_B: 1111 | VGA_HS: 1 | VGA_VS: 1
Time:            217605000 | CPU_RESETN: 1 | SW: 0101010101010101 | BTNC: 1 | VGA_R: 0000 | VGA_G: 1111 | VGA_B: 0000 | VGA_HS: 1 | VGA_VS: 1
Time:            218245000 | CPU_RESETN: 1 | SW: 0101010101010101 | BTNC: 1 | VGA_R: 0000 | VGA_G: 1111 | VGA_B: 0000 | VGA_HS: 0 | VGA_VS: 1
Time:            222085000 | CPU_RESETN: 1 | SW: 0101010101010101 | BTNC: 1 | VGA_R: 0000 | VGA_G: 1111 | VGA_B: 0000 | VGA_HS: 1 | VGA_VS: 1
Time:            224005000 | CPU_RESETN: 1 | SW: 0101010101010101 | BTNC: 1 | VGA_R: 0000 | VGA_G: 0000 | VGA_B: 1111 | VGA_HS: 1 | VGA_VS: 1
Time:            249605000 | CPU_RESETN: 1 | SW: 0101010101010101 | BTNC: 1 | VGA_R: 0000 | VGA_G: 1111 | VGA_B: 0000 | VGA_HS: 1 | VGA_VS: 1
Time:            250245000 | CPU_RESETN: 1 | SW: 0101010101010101 | BTNC: 1 | VGA_R: 0000 | VGA_G: 1111 | VGA_B: 0000 | VGA_HS: 0 | VGA_VS: 1
Time:            254085000 | CPU_RESETN: 1 | SW: 0101010101010101 | BTNC: 1 | VGA_R: 0000 | VGA_G: 1111 | VGA_B: 0000 | VGA_HS: 1 | VGA_VS: 1
Time:            281605000 | CPU_RESETN: 1 | SW: 0101010101010101 | BTNC: 1 | VGA_R: 0000 | VGA_G: 1111 | VGA_B: 1111 | VGA_HS: 1 | VGA_VS: 1
Time:            282245000 | CPU_RESETN: 1 | SW: 0101010101010101 | BTNC: 1 | VGA_R: 0000 | VGA_G: 1111 | VGA_B: 1111 | VGA_HS: 0 | VGA_VS: 1
Time:            286085000 | CPU_RESETN: 1 | SW: 0101010101010101 | BTNC: 1 | VGA_R: 0000 | VGA_G: 1111 | VGA_B: 1111 | VGA_HS: 1 | VGA_VS: 1
Time:            288005000 | CPU_RESETN: 1 | SW: 0101010101010101 | BTNC: 1 | VGA_R: 0000 | VGA_G: 1111 | VGA_B: 0000 | VGA_HS: 1 | VGA_VS: 1
Time:            313605000 | CPU_RESETN: 1 | SW: 0101010101010101 | BTNC: 1 | VGA_R: 0000 | VGA_G: 1111 | VGA_B: 1111 | VGA_HS: 1 | VGA_VS: 1
Time:            314245000 | CPU_RESETN: 1 | SW: 0101010101010101 | BTNC: 1 | VGA_R: 0000 | VGA_G: 1111 | VGA_B: 1111 | VGA_HS: 0 | VGA_VS: 1
Time:            318085000 | CPU_RESETN: 1 | SW: 0101010101010101 | BTNC: 1 | VGA_R: 0000 | VGA_G: 1111 | VGA_B: 1111 | VGA_HS: 1 | VGA_VS: 1
Time:            320005000 | CPU_RESETN: 1 | SW: 0101010101010101 | BTNC: 1 | VGA_R: 0000 | VGA_G: 1111 | VGA_B: 0000 | VGA_HS: 1 | VGA_VS: 1
Time:            345605000 | CPU_RESETN: 1 | SW: 0101010101010101 | BTNC: 1 | VGA_R: 0000 | VGA_G: 1111 | VGA_B: 1111 | VGA_HS: 1 | VGA_VS: 1
Time:            346245000 | CPU_RESETN: 1 | SW: 0101010101010101 | BTNC: 1 | VGA_R: 0000 | VGA_G: 1111 | VGA_B: 1111 | VGA_HS: 0 | VGA_VS: 1
Time:            350085000 | CPU_RESETN: 1 | SW: 0101010101010101 | BTNC: 1 | VGA_R: 0000 | VGA_G: 1111 | VGA_B: 1111 | VGA_HS: 1 | VGA_VS: 1
Time:            352005000 | CPU_RESETN: 1 | SW: 0101010101010101 | BTNC: 1 | VGA_R: 0000 | VGA_G: 1111 | VGA_B: 0000 | VGA_HS: 1 | VGA_VS: 1
Time:            377605000 | CPU_RESETN: 1 | SW: 0101010101010101 | BTNC: 1 | VGA_R: 0000 | VGA_G: 1111 | VGA_B: 1111 | VGA_HS: 1 | VGA_VS: 1
Time:            378245000 | CPU_RESETN: 1 | SW: 0101010101010101 | BTNC: 1 | VGA_R: 0000 | VGA_G: 1111 | VGA_B: 1111 | VGA_HS: 0 | VGA_VS: 1
Time:            382085000 | CPU_RESETN: 1 | SW: 0101010101010101 | BTNC: 1 | VGA_R: 0000 | VGA_G: 1111 | VGA_B: 1111 | VGA_HS: 1 | VGA_VS: 1
Time:            409605000 | CPU_RESETN: 1 | SW: 0101010101010101 | BTNC: 1 | VGA_R: 1111 | VGA_G: 0000 | VGA_B: 0000 | VGA_HS: 1 | VGA_VS: 1
Time:            410245000 | CPU_RESETN: 1 | SW: 0101010101010101 | BTNC: 1 | VGA_R: 1111 | VGA_G: 0000 | VGA_B: 0000 | VGA_HS: 0 | VGA_VS: 1
Time:            414085000 | CPU_RESETN: 1 | SW: 0101010101010101 | BTNC: 1 | VGA_R: 1111 | VGA_G: 0000 | VGA_B: 0000 | VGA_HS: 1 | VGA_VS: 1
Time:            416005000 | CPU_RESETN: 1 | SW: 0101010101010101 | BTNC: 1 | VGA_R: 0000 | VGA_G: 1111 | VGA_B: 1111 | VGA_HS: 1 | VGA_VS: 1
Time:            441605000 | CPU_RESETN: 1 | SW: 0101010101010101 | BTNC: 1 | VGA_R: 1111 | VGA_G: 0000 | VGA_B: 0000 | VGA_HS: 1 | VGA_VS: 1
Time:            442245000 | CPU_RESETN: 1 | SW: 0101010101010101 | BTNC: 1 | VGA_R: 1111 | VGA_G: 0000 | VGA_B: 0000 | VGA_HS: 0 | VGA_VS: 1
Time:            446085000 | CPU_RESETN: 1 | SW: 0101010101010101 | BTNC: 1 | VGA_R: 1111 | VGA_G: 0000 | VGA_B: 0000 | VGA_HS: 1 | VGA_VS: 1
Time:            448005000 | CPU_RESETN: 1 | SW: 0101010101010101 | BTNC: 1 | VGA_R: 0000 | VGA_G: 1111 | VGA_B: 1111 | VGA_HS: 1 | VGA_VS: 1
Time:            473605000 | CPU_RESETN: 1 | SW: 0101010101010101 | BTNC: 1 | VGA_R: 1111 | VGA_G: 0000 | VGA_B: 0000 | VGA_HS: 1 | VGA_VS: 1
Time:            474245000 | CPU_RESETN: 1 | SW: 0101010101010101 | BTNC: 1 | VGA_R: 1111 | VGA_G: 0000 | VGA_B: 0000 | VGA_HS: 0 | VGA_VS: 1
Time:            478085000 | CPU_RESETN: 1 | SW: 0101010101010101 | BTNC: 1 | VGA_R: 1111 | VGA_G: 0000 | VGA_B: 0000 | VGA_HS: 1 | VGA_VS: 1
Time:            480005000 | CPU_RESETN: 1 | SW: 0101010101010101 | BTNC: 1 | VGA_R: 0000 | VGA_G: 1111 | VGA_B: 1111 | VGA_HS: 1 | VGA_VS: 1
Time:            505605000 | CPU_RESETN: 1 | SW: 0101010101010101 | BTNC: 1 | VGA_R: 1111 | VGA_G: 0000 | VGA_B: 0000 | VGA_HS: 1 | VGA_VS: 1
Time:            506245000 | CPU_RESETN: 1 | SW: 0101010101010101 | BTNC: 1 | VGA_R: 1111 | VGA_G: 0000 | VGA_B: 0000 | VGA_HS: 0 | VGA_VS: 1
Time:            510085000 | CPU_RESETN: 1 | SW: 0101010101010101 | BTNC: 1 | VGA_R: 1111 | VGA_G: 0000 | VGA_B: 0000 | VGA_HS: 1 | VGA_VS: 1
Time:            537605000 | CPU_RESETN: 1 | SW: 0101010101010101 | BTNC: 1 | VGA_R: 1111 | VGA_G: 0000 | VGA_B: 1111 | VGA_HS: 1 | VGA_VS: 1
Time:            538245000 | CPU_RESETN: 1 | SW: 0101010101010101 | BTNC: 1 | VGA_R: 1111 | VGA_G: 0000 | VGA_B: 1111 | VGA_HS: 0 | VGA_VS: 1
Time:            542085000 | CPU_RESETN: 1 | SW: 0101010101010101 | BTNC: 1 | VGA_R: 1111 | VGA_G: 0000 | VGA_B: 1111 | VGA_HS: 1 | VGA_VS: 1
Time:            544005000 | CPU_RESETN: 1 | SW: 0101010101010101 | BTNC: 1 | VGA_R: 1111 | VGA_G: 0000 | VGA_B: 0000 | VGA_HS: 1 | VGA_VS: 1
Time:            569605000 | CPU_RESETN: 1 | SW: 0101010101010101 | BTNC: 1 | VGA_R: 1111 | VGA_G: 0000 | VGA_B: 1111 | VGA_HS: 1 | VGA_VS: 1
Time:            570245000 | CPU_RESETN: 1 | SW: 0101010101010101 | BTNC: 1 | VGA_R: 1111 | VGA_G: 0000 | VGA_B: 1111 | VGA_HS: 0 | VGA_VS: 1
Time:            574085000 | CPU_RESETN: 1 | SW: 0101010101010101 | BTNC: 1 | VGA_R: 1111 | VGA_G: 0000 | VGA_B: 1111 | VGA_HS: 1 | VGA_VS: 1
Time:            576005000 | CPU_RESETN: 1 | SW: 0101010101010101 | BTNC: 1 | VGA_R: 1111 | VGA_G: 0000 | VGA_B: 0000 | VGA_HS: 1 | VGA_VS: 1
Time:            601605000 | CPU_RESETN: 1 | SW: 0101010101010101 | BTNC: 1 | VGA_R: 1111 | VGA_G: 0000 | VGA_B: 1111 | VGA_HS: 1 | VGA_VS: 1
Time:            602245000 | CPU_RESETN: 1 | SW: 0101010101010101 | BTNC: 1 | VGA_R: 1111 | VGA_G: 0000 | VGA_B: 1111 | VGA_HS: 0 | VGA_VS: 1
Time:            606085000 | CPU_RESETN: 1 | SW: 0101010101010101 | BTNC: 1 | VGA_R: 1111 | VGA_G: 0000 | VGA_B: 1111 | VGA_HS: 1 | VGA_VS: 1
Time:            608005000 | CPU_RESETN: 1 | SW: 0101010101010101 | BTNC: 1 | VGA_R: 1111 | VGA_G: 0000 | VGA_B: 0000 | VGA_HS: 1 | VGA_VS: 1
Time:            633605000 | CPU_RESETN: 1 | SW: 0101010101010101 | BTNC: 1 | VGA_R: 1111 | VGA_G: 0000 | VGA_B: 1111 | VGA_HS: 1 | VGA_VS: 1
Time:            634245000 | CPU_RESETN: 1 | SW: 0101010101010101 | BTNC: 1 | VGA_R: 1111 | VGA_G: 0000 | VGA_B: 1111 | VGA_HS: 0 | VGA_VS: 1
Time:            638085000 | CPU_RESETN: 1 | SW: 0101010101010101 | BTNC: 1 | VGA_R: 1111 | VGA_G: 0000 | VGA_B: 1111 | VGA_HS: 1 | VGA_VS: 1
Time:            665605000 | CPU_RESETN: 1 | SW: 0101010101010101 | BTNC: 1 | VGA_R: 1111 | VGA_G: 1111 | VGA_B: 0000 | VGA_HS: 1 | VGA_VS: 1
Time:            666245000 | CPU_RESETN: 1 | SW: 0101010101010101 | BTNC: 1 | VGA_R: 1111 | VGA_G: 1111 | VGA_B: 0000 | VGA_HS: 0 | VGA_VS: 1
Time:            670085000 | CPU_RESETN: 1 | SW: 0101010101010101 | BTNC: 1 | VGA_R: 1111 | VGA_G: 1111 | VGA_B: 0000 | VGA_HS: 1 | VGA_VS: 1
Time:            672005000 | CPU_RESETN: 1 | SW: 0101010101010101 | BTNC: 1 | VGA_R: 1111 | VGA_G: 0000 | VGA_B: 1111 | VGA_HS: 1 | VGA_VS: 1
Time:            697605000 | CPU_RESETN: 1 | SW: 0101010101010101 | BTNC: 1 | VGA_R: 1111 | VGA_G: 1111 | VGA_B: 0000 | VGA_HS: 1 | VGA_VS: 1
Time:            698245000 | CPU_RESETN: 1 | SW: 0101010101010101 | BTNC: 1 | VGA_R: 1111 | VGA_G: 1111 | VGA_B: 0000 | VGA_HS: 0 | VGA_VS: 1
Time:            702085000 | CPU_RESETN: 1 | SW: 0101010101010101 | BTNC: 1 | VGA_R: 1111 | VGA_G: 1111 | VGA_B: 0000 | VGA_HS: 1 | VGA_VS: 1
Time:            704005000 | CPU_RESETN: 1 | SW: 0101010101010101 | BTNC: 1 | VGA_R: 1111 | VGA_G: 0000 | VGA_B: 1111 | VGA_HS: 1 | VGA_VS: 1
Time:            729605000 | CPU_RESETN: 1 | SW: 0101010101010101 | BTNC: 1 | VGA_R: 1111 | VGA_G: 1111 | VGA_B: 0000 | VGA_HS: 1 | VGA_VS: 1
Time:            730245000 | CPU_RESETN: 1 | SW: 0101010101010101 | BTNC: 1 | VGA_R: 1111 | VGA_G: 1111 | VGA_B: 0000 | VGA_HS: 0 | VGA_VS: 1
Time:            734085000 | CPU_RESETN: 1 | SW: 0101010101010101 | BTNC: 1 | VGA_R: 1111 | VGA_G: 1111 | VGA_B: 0000 | VGA_HS: 1 | VGA_VS: 1
Time:            736005000 | CPU_RESETN: 1 | SW: 0101010101010101 | BTNC: 1 | VGA_R: 1111 | VGA_G: 0000 | VGA_B: 1111 | VGA_HS: 1 | VGA_VS: 1
Time:            761605000 | CPU_RESETN: 1 | SW: 0101010101010101 | BTNC: 1 | VGA_R: 1111 | VGA_G: 1111 | VGA_B: 0000 | VGA_HS: 1 | VGA_VS: 1
Time:            762245000 | CPU_RESETN: 1 | SW: 0101010101010101 | BTNC: 1 | VGA_R: 1111 | VGA_G: 1111 | VGA_B: 0000 | VGA_HS: 0 | VGA_VS: 1
Time:            766085000 | CPU_RESETN: 1 | SW: 0101010101010101 | BTNC: 1 | VGA_R: 1111 | VGA_G: 1111 | VGA_B: 0000 | VGA_HS: 1 | VGA_VS: 1
Time:            793605000 | CPU_RESETN: 1 | SW: 0101010101010101 | BTNC: 1 | VGA_R: 1111 | VGA_G: 1111 | VGA_B: 1111 | VGA_HS: 1 | VGA_VS: 1
Time:            794245000 | CPU_RESETN: 1 | SW: 0101010101010101 | BTNC: 1 | VGA_R: 1111 | VGA_G: 1111 | VGA_B: 1111 | VGA_HS: 0 | VGA_VS: 1
Time:            798085000 | CPU_RESETN: 1 | SW: 0101010101010101 | BTNC: 1 | VGA_R: 1111 | VGA_G: 1111 | VGA_B: 1111 | VGA_HS: 1 | VGA_VS: 1
Time:            800005000 | CPU_RESETN: 1 | SW: 0101010101010101 | BTNC: 1 | VGA_R: 1111 | VGA_G: 1111 | VGA_B: 0000 | VGA_HS: 1 | VGA_VS: 1
Time:            825605000 | CPU_RESETN: 1 | SW: 0101010101010101 | BTNC: 1 | VGA_R: 1111 | VGA_G: 1111 | VGA_B: 1111 | VGA_HS: 1 | VGA_VS: 1
Time:            826245000 | CPU_RESETN: 1 | SW: 0101010101010101 | BTNC: 1 | VGA_R: 1111 | VGA_G: 1111 | VGA_B: 1111 | VGA_HS: 0 | VGA_VS: 1
Time:            830085000 | CPU_RESETN: 1 | SW: 0101010101010101 | BTNC: 1 | VGA_R: 1111 | VGA_G: 1111 | VGA_B: 1111 | VGA_HS: 1 | VGA_VS: 1
Time:            832005000 | CPU_RESETN: 1 | SW: 0101010101010101 | BTNC: 1 | VGA_R: 1111 | VGA_G: 1111 | VGA_B: 0000 | VGA_HS: 1 | VGA_VS: 1
Time:            857605000 | CPU_RESETN: 1 | SW: 0101010101010101 | BTNC: 1 | VGA_R: 1111 | VGA_G: 1111 | VGA_B: 1111 | VGA_HS: 1 | VGA_VS: 1
Time:            858245000 | CPU_RESETN: 1 | SW: 0101010101010101 | BTNC: 1 | VGA_R: 1111 | VGA_G: 1111 | VGA_B: 1111 | VGA_HS: 0 | VGA_VS: 1
Time:            862085000 | CPU_RESETN: 1 | SW: 0101010101010101 | BTNC: 1 | VGA_R: 1111 | VGA_G: 1111 | VGA_B: 1111 | VGA_HS: 1 | VGA_VS: 1
Time:            864005000 | CPU_RESETN: 1 | SW: 0101010101010101 | BTNC: 1 | VGA_R: 1111 | VGA_G: 1111 | VGA_B: 0000 | VGA_HS: 1 | VGA_VS: 1
Time:            889605000 | CPU_RESETN: 1 | SW: 0101010101010101 | BTNC: 1 | VGA_R: 1111 | VGA_G: 1111 | VGA_B: 1111 | VGA_HS: 1 | VGA_VS: 1
Time:            890245000 | CPU_RESETN: 1 | SW: 0101010101010101 | BTNC: 1 | VGA_R: 1111 | VGA_G: 1111 | VGA_B: 1111 | VGA_HS: 0 | VGA_VS: 1
Time:            894085000 | CPU_RESETN: 1 | SW: 0101010101010101 | BTNC: 1 | VGA_R: 1111 | VGA_G: 1111 | VGA_B: 1111 | VGA_HS: 1 | VGA_VS: 1
Time:            921605000 | CPU_RESETN: 1 | SW: 0101010101010101 | BTNC: 1 | VGA_R: 0000 | VGA_G: 0000 | VGA_B: 0000 | VGA_HS: 1 | VGA_VS: 1
Time:            922245000 | CPU_RESETN: 1 | SW: 0101010101010101 | BTNC: 1 | VGA_R: 0000 | VGA_G: 0000 | VGA_B: 0000 | VGA_HS: 0 | VGA_VS: 1
